[
    "00100000",
    "00100000",
    "00100000",
    "00100000",
    "01101100",
    "01101111",
    "01100111",
    "01101111",
    "00000000",
    "00000000",
    "00000000",
    "00010000",
    "00000000",
    "00010000",
    "00000000",
    "00010000",
    "00000000",
    "00000001",
    "10001000",
    "00000000",
    "01010000",
    "00000000",
    "00100000",
    "00000000",
    "01010000",
    "00000000",
    "10001000",
    "00000000",
    "00000100",
    "00000000",
    "00000010",
    "00000000",
    "00000001",
    "11111111",
    "00000001",
    "00010000",
    "00000001",
    "00010000",
    "00000001",
    "00000000",
    "00000001",
    "00010000",
    "00000111",
    "00010000",
    "00000111",
    "00000000",
    "00000001",
    "00010000",
    "00000001",
    "00010000"
]